ABIGAIL,AMELIA,AVA,BENJAMIN,CHARLOTTE,ELIJAH,EMMA,EVELYN,ISABELLA,JACOB,JAMES,LIAM,LOGAN,MASON,MIA,NOAH,OLIVER,OLIVIA,SOPHIA,WILLIAM
J,O,K,D,L,S,P,I,N,E,M,D,C,Z,W,X,F,P,Q,B,Q,E,Q,C,J,G,M,I,R,V,T,B,F,H,I,R,R,E,B,Q
O,Q,S,T,I,B,O,A,Z,L,Q,C,W,P,Y,D,A,Q,O,F,E,C,O,N,Y,C,C,R,M,V,B,J,R,L,R,I,N,Z,K,L
M,P,H,A,A,O,E,E,O,H,B,S,S,Y,A,B,E,J,P,E,I,M,P,I,T,S,T,T,D,Z,X,O,K,P,D,Y,D,U,J,T
G,B,D,C,M,T,H,M,G,A,L,I,Z,E,J,A,X,O,V,Z,H,X,W,W,U,F,M,Q,Z,I,G,G,O,L,O,K,C,D,X,L
B,J,K,T,X,W,T,D,R,A,E,S,Q,J,V,X,C,C,H,P,W,H,N,V,N,M,W,L,D,Q,J,A,I,K,J,K,I,H,I,Y
O,K,A,Z,K,F,J,M,A,N,J,K,E,P,Z,V,I,E,N,O,E,S,Q,B,J,F,A,N,M,V,S,E,T,N,L,A,I,R,M,Q
N,H,I,M,E,L,I,J,A,H,J,H,C,S,T,G,G,N,A,Q,U,A,E,P,B,B,Y,X,P,K,H,R,W,G,D,L,Z,U,Z,P
R,J,M,H,V,S,M,G,V,A,C,J,D,K,F,Q,S,R,O,H,Y,U,E,V,M,S,A,W,B,K,W,O,F,I,H,X,L,W,X,R
U,H,U,Z,Q,M,O,X,N,G,U,Q,U,I,C,K,M,O,A,F,A,L,X,F,B,L,D,B,D,R,F,T,M,Q,J,G,L,M,E,H
J,A,T,A,V,L,Q,Y,O,B,W,W,E,J,Q,P,D,H,N,G,R,P,H,F,B,Q,V,U,D,E,C,T,D,Z,Q,M,J,I,X,G
Q,A,H,Q,R,I,L,F,L,T,T,G,P,R,D,Y,O,K,M,A,C,K,E,N,R,R,U,W,F,R,A,N,M,F,M,C,D,N,J,Q
A,M,M,E,F,I,H,B,L,F,I,H,Z,B,T,I,L,B,A,P,D,M,H,G,H,V,W,V,X,J,L,R,V,F,I,F,D,A,Y,H
B,X,Q,K,A,J,J,M,P,Y,N,O,X,P,T,J,I,D,I,E,J,P,O,X,P,A,D,V,Z,S,Z,V,R,N,V,Q,N,T,D,A
U,C,B,G,O,M,Y,W,C,M,B,R,R,M,Z,L,V,G,L,J,T,E,E,K,H,S,G,H,K,G,D,E,M,E,F,Y,P,T,S,W
U,Q,I,E,K,K,B,H,C,I,D,T,Q,X,U,T,I,B,L,S,R,R,V,D,D,A,S,B,M,W,G,H,J,U,X,I,W,Y,Y,Z
S,B,C,V,M,R,A,X,K,A,N,G,U,T,B,W,A,S,I,A,M,B,Z,V,E,O,L,V,L,N,L,G,Q,S,U,Z,L,L,E,D
A,J,W,T,I,R,J,P,S,Z,U,A,L,B,W,E,Y,R,W,Z,N,L,G,M,P,H,E,L,Y,X,V,T,D,X,K,J,F,B,B,N
T,O,L,X,L,Y,V,V,M,O,L,J,S,O,B,Q,C,Z,O,H,A,A,I,H,O,R,O,A,E,O,U,H,C,Z,W,Z,J,K,G,J
Z,J,L,O,X,A,P,F,U,O,P,Q,A,K,C,X,B,M,B,T,S,B,I,X,X,K,R,M,C,B,D,X,O,M,J,H,J,R,I,B
O,X,T,I,L,P,O,H,I,Y,W,Q,T,C,M,V,D,C,A,Q,V,A,A,K,F,G,E,S,E,W,A,C,H,T,I,I,A,T,I,R
Z,T,Z,I,V,S,D,D,N,M,U,J,J,P,O,T,R,Z,L,L,E,B,S,I,T,Z,F,P,A,A,T,S,H,K,B,O,G,L,I,T
E,U,P,O,B,E,H,D,E,W,E,B,A,L,A,B,T,E,O,H,M,X,D,R,G,B,I,G,D,S,U,T,I,K,Z,D,U,K,Y,H
D,U,S,F,D,N,R,O,U,H,S,N,Q,U,L,X,G,D,D,W,G,O,W,X,R,Y,V,A,T,W,A,P,O,Y,M,J,J,L,G,L
B,Z,F,Y,M,U,P,S,T,W,E,A,A,Q,J,C,B,M,A,S,O,N,V,X,J,Y,M,M,F,S,H,X,Z,V,D,D,B,G,A,C
N,M,J,C,F,M,O,X,M,P,S,E,U,T,I,J,J,T,G,Z,Q,A,P,T,C,M,W,H,T,V,G,Z,L,Z,M,U,U,Q,M,Y
C,Y,N,Q,H,R,G,G,E,H,C,A,L,Z,K,Z,A,D,U,T,E,O,F,U,N,F,J,E,C,V,P,G,Q,B,S,B,E,O,B,Q
W,R,L,H,L,C,C,U,P,U,A,V,U,W,A,I,L,E,M,A,D,N,R,I,L,P,R,D,X,U,R,Q,J,A,H,Z,Y,N,F,F
O,G,W,E,C,N,P,H,Q,T,L,G,N,Z,F,R,B,F,M,H,C,N,O,N,O,B,K,O,V,K,B,U,T,Y,W,N,O,S,F,T
H,L,P,K,V,J,R,S,O,I,N,A,I,C,F,I,P,C,F,U,E,X,L,C,E,E,X,A,T,Q,H,A,W,J,A,D,N,M,S,K
C,W,K,C,B,E,I,N,N,R,W,U,A,K,J,Q,A,C,E,M,S,T,N,S,L,I,O,Q,A,Y,B,Q,R,D,G,X,P,S,X,Y
O,N,P,W,A,N,I,L,G,K,K,Q,T,X,J,O,X,Z,M,F,D,W,G,Z,Z,J,F,A,K,Q,A,B,V,X,X,M,T,W,A,L
F,A,U,M,M,B,K,H,I,U,P,V,V,K,Q,F,G,R,Q,I,V,M,B,V,K,S,Q,L,Q,B,R,O,D,G,D,B,A,P,P,M
P,O,V,X,F,N,T,N,N,C,A,E,S,H,I,R,H,L,L,Q,N,W,J,V,F,B,C,V,D,V,G,F,S,C,V,N,T,I,I,Z
V,A,U,A,X,J,O,U,N,Y,P,C,U,A,H,V,T,B,U,T,V,I,Q,L,F,W,B,H,Q,E,X,U,G,D,T,G,C,G,J,L
N,E,H,W,X,A,G,S,Z,T,O,R,T,W,E,J,O,Z,K,X,F,M,W,C,I,I,A,R,V,M,R,O,X,I,H,Q,Y,J,T,Q
Z,K,S,I,H,D,F,S,S,D,U,O,U,O,A,X,A,E,N,P,P,U,Y,M,N,Q,V,Y,E,X,N,R,Y,U,N,U,E,M,I,Y
L,S,E,W,Y,X,G,V,M,B,W,B,C,S,L,U,P,F,K,X,K,S,J,R,J,E,Z,G,X,B,A,F,C,S,X,J,G,Q,I,W
S,J,M,Z,P,W,J,W,N,J,D,R,T,T,W,I,Q,A,X,Y,U,V,X,Y,A,R,X,M,Z,L,X,A,H,D,J,H,U,X,J,K
G,J,A,T,G,B,A,M,C,M,C,N,N,U,N,P,Q,Y,E,N,F,J,O,P,P,E,G,N,I,M,A,J,N,E,B,L,O,H,G,R
H,D,J,B,K,V,M,G,N,W,L,E,K,M,Y,A,A,H,C,F,W,W,F,Q,R,K,T,Q,A,Q,T,Z,F,U,J,B,O,G,Q,L